
{
    "site_name": "PROVOST-VPAA-PROVWEB",
    "site_url": "https://provost.utsa.edu",
    "contentTypesRoot": [
    {
        "contentType": "site://UTSA-WWWROOT/SITE/ROOT Site Page - Staff Roll",
        "count": 0,
        "pages": [
                ]
    },    {
        "contentType": "site://UTSA-WWWROOT/SITE/ROOT Site Page - Content Rows",
        "count": 0,
        "pages": [
                ]
    },    {
        "contentType": "site://UTSA-WWWROOT/Standard Page Wide",
        "count": 0,
        "pages": [
                ]
    },    {
        "contentType": "site://UTSA-WWWROOT/SITE/ROOT Site Page - Staff Profile Roll page",
        "count": 0,
        "pages": [
                ]
    },    {
        "contentType": "site://UTSA-WWWROOT/Emergency Alert",
        "count": 0,
        "pages": [
                ]
    },    {
        "contentType": "site://UTSA-WWWROOT/SITE/ROOT Site Page - Content",
        "count": 0,
        "pages": [
                ]
    }    ],
    "contentTypesSite": [
    ]
}
