{
  "version": "3.17.16188.0",
  "scenes": [
    {
      "title": "Meet the Players"
    }
  ],
  "slides": [
    {
      "id": "64wAWfOsSiz",
      "title": "Interaction",
      "scene_index": "1.1"
    }
  ],
  "player": {
    "name": "classic",
    "width": 740,
    "height": 560
  },
  "stage": {
    "width": 720,
    "height": 540
  }
}